{
	"product": 
		{
			"body_html":"Accessories maketh the person, so bandanas seem a pretty good place to start! Great for festivals, the beach, just about anywhere really!",
			"created_at":"2013-05-09T15:29:17-04:00",
			"handle":"square-black-skull-cross-bandana",
			"id":"135375605",
			"images": 
				[
					{ "id": 263238049 },
					{ "id": 263238049 } 
				],
			"options": 
				[
					{ "id": 161966297 },
					{ "id": 161966297 }
				], 
			"product_type":"Accessories",
			"published_at":"2013-05-09T15:29:17-04:00",
			"published_scope":"global",
			"tags":"bandana, black, cross, skull",
			"title":"Square Black Skull Cross Bandana",
			"updated_at":"2015-05-30T02:51:23-04:00",
			"variants":
				[
					{ 
						"barcode":"None" ,
						"compare_at_price":"None" ,
						"created_at":"2013-05-09T15:29:17-04:00" ,
						"fulfillment_service":"manual" ,
						"grams": 0 ,  
						"id": 309187521 ,
						"image_id":"None" ,
						"inventory_management":"shopify" ,
						"inventory_policy":"deny" ,
						"inventory_quantity": 100 ,
						"old_inventory_quantity": 100 ,
						"option1":"Default" ,
						"option2":"None" ,
						"option3":"None" ,
						"position": 1 ,
						"price":"2.50" ,
						"requires_shipping":"True" ,
						"sku":"DB303-BLK-0" ,
						"taxable":"True" ,
						"title":"Default" ,
						"updated_at":"2013-05-09T15:29:17-04:00" ,
						"weight": 0.0 ,
						"weight_unit":"kg"
					},
					{ 
						"barcode":"None" ,
						"compare_at_price":"None" ,
						"created_at":"2013-05-09T15:29:17-04:00" ,
						"fulfillment_service":"manual" ,
						"grams": 0 ,
						"id": 309187521 , 
						"image_id":"None" ,
						"inventory_management":"shopify" ,
						"inventory_policy":"deny" ,
						"inventory_quantity": 100 ,
						"old_inventory_quantity": 100 ,
						"option1":"Default" ,
						"option2":"None" ,
						"option3":"None" ,
						"position": 1 ,
						"price":"2.50" ,
						"requires_shipping":"True" ,
						"sku":"DB303-BLK-0" , 
						"taxable":"True" ,
						"title":"Default" ,
						"updated_at":"2013-05-09T15:29:17-04:00" ,
						"weight": 0.0 ,
						"weight_unit":"kg" 
					} 
				] ,
			"vendor":"Docblack"
		}
}
						
						
						
						
						
						
						
						
						
						
						
						
						
						
						
						
						
						
						
						
						